2 Transform – My R4DS notes using webr
…
str_view("abababa", "aba")

[1] │ <aba>b<aba>

str_count() can be used with mutate(). In the exemple below, count the number of vowels and consonants in each name.

babynames |>
  count(name) |>
  mutate(
    vowels = str_count(name, "[aeiou]"),
    consonants = str_count(name, "[^aeiou]")
  )

# A tibble: 97,310 × 4
   name          n vowels consonants
   <chr>     <int>  <int>      <int>
 1 Aaban        10      2          3
 2 Aabha         5      2          3
 3 Aabid         2      2          3
 4 Aabir         1      2          3
 5 Aabriella     5      4          5
 6 Aada          1      2          2
 7 Aadam        26      2          3
 8 Aadan        11      2          3
 9 Aadarsh      17      2          5
10 Aaden        18      2          3
# ℹ 97,300 more rows
…
